\relax 
\@nameuse{bbl@beforestart}
\catcode `:\active 
\catcode `;\active 
\catcode `!\active 
\catcode `?\active 
\babel@aux{french}{}
\citation{bar}
\@writefile{toc}{\contentsline {section}{\numberline {0.1}Tables de Hachage I: Fonction de Hachage}{1}\protected@file@percent }
\@writefile{toc}{\contentsline {subsection}{\numberline {0.1.1}Question 1}{1}\protected@file@percent }
\@writefile{toc}{\contentsline {subsection}{\numberline {0.1.2}Question 2}{1}\protected@file@percent }
\citation{htmeth}
\citation{dlt}
\citation{birthdayatt}
\@writefile{toc}{\contentsline {section}{\numberline {0.2}Tables de Hachage II: Table de hachage}{2}\protected@file@percent }
\@writefile{toc}{\contentsline {subsection}{\numberline {0.2.1}Question 1}{2}\protected@file@percent }
\@writefile{toc}{\contentsline {subsection}{\numberline {0.2.2}Question 2}{2}\protected@file@percent }
\@writefile{toc}{\contentsline {subsection}{\numberline {0.2.3}Question 3}{2}\protected@file@percent }
\@writefile{toc}{\contentsline {subsubsection}{Nombre d'essaies pour avoir une chance raisonnable de trouver une collision}{2}\protected@file@percent }
\@writefile{toc}{\contentsline {subsubsection}{Nombre de tentatives pour notre algorithme}{3}\protected@file@percent }
\@writefile{lof}{\contentsline {figure}{\numberline {1}{\ignorespaces Collisions trouvées par notre logiciel de recherche des collisions pour la fonction fun}}{3}\protected@file@percent }
\@writefile{toc}{\contentsline {subsubsection}{Nombre d'itérations avant de trouver une collision}{3}\protected@file@percent }
\citation{f32}
\@writefile{lof}{\contentsline {figure}{\numberline {2}{\ignorespaces Tableau du nombre d'itération qu'il a fallu au programme \leavevmode {\color  {blue}src/search\_first\_collision.c} pour trouver une collision.}}{4}\protected@file@percent }
\@writefile{lof}{\contentsline {figure}{\numberline {3}{\ignorespaces Tableau de différents indicateurs statistiques sur la répartition des essaies nécessaire pour trouver une collision.}}{4}\protected@file@percent }
\@writefile{toc}{\contentsline {subsection}{\numberline {0.2.4}Question 4}{4}\protected@file@percent }
\@writefile{lof}{\contentsline {figure}{\numberline {4}{\ignorespaces Tableau du nombre d'itération qu'il a fallu au programme pour trouver une collision.}}{5}\protected@file@percent }
\@writefile{lof}{\contentsline {figure}{\numberline {5}{\ignorespaces Tableau de différents indicateurs statistiques sur la répartition des essaies nécessaire pour trouver une collision.}}{5}\protected@file@percent }
\bibcite{bar}{1}
\bibcite{htmeth}{2}
\bibcite{birthdayatt}{3}
\bibcite{romp}{4}
\bibcite{dlt}{5}
\bibcite{f32}{6}
